  טז ניסן, ב דחהמ"צ [בחו"ל], אחד לעומר<br />
יום רביעי (תש"ג)<br />
ליל ב' דחג - המצות - קראית שמע - שעל המטה כמו בכל יום- טוב.<br />
  <br />
  שיעורים: חומש: אחרי מות, רביעי עם פירש"י.<br />
  תהילים: עט- פב.<br />
  תניא" אך אמנם.. '114' אתה וכה"ג.<br />
  <br />
  <br />
גם מי שאין לו אב, ר"ל אומר לפני 'מה נשתנה': "טאטע איך וועל בא דיר פרעגן פיר <br />
  קשיות" [=אבא, אשאל אותך ארבע קושיות"]. וסמוכות [=כעין ראיה] לזה, שגם מי שאין לו <br />
  אב ואם, ר"ל, צריך לומר בברכת המזון" הרחמן הוא יברך את אבי מורי כו' אמי מורתי כו'<br />
  <br />
